Peer Assessment II
…
ames_validation%>%mutate(res=resid.BIC.va )%>%arrange(desc(res))

## # A tibble: 763 x 82
##        PID  area  price MS.SubClass MS.Zoning Lot.Frontage Lot.Area Street
##      <int> <int>  <int>       <int> <fct>            <int>    <int> <fct> 
##  1  5.28e8  3500 584500          60 RL                 114    17242 Pave  
##  2  5.27e8  2000 470000          20 RL                  90    18261 Pave  
##  3  9.02e8  3608 475000          75 RM                  90    22950 Pave  
##  4  5.27e8  2234 441929          20 RL                  85    14082 Pave  
##  5  9.05e8  1518 260000          30 RL                  85    19550 Pave  
##  6  9.09e8  1718 238000          70 RL                  60     7230 Pave  
##  7  9.09e8  1954 311500          50 RL                  NA    15660 Pave  
##  8  9.03e8  1576 223500          70 RL                 144    21384 Pave  
##  9  5.28e8  2296 451950          60 RL                  97    13478 Pave  
## 10  9.05e8  2260 328000          60 RL                  80    14000 Pave  
## # ... with 753 more rows, and 74 more variables: Alley <fct>,
## #   Lot.Shape <fct>, Land.Contour <fct>, Utilities <fct>,
## #   Lot.Config <fct>, Land.Slope <fct>, Neighborhood <fct>,
## #   Condition.1 <fct>, Condition.2 <fct>, Bldg.Type <fct>,
## #   House.Style <fct>, Overall.Qual <int>, Overall.Cond <int>,
## #   Year.Built <int>, Year.Remod.Add <int>, Roof.Style <fct>,
## #   Roof.Matl <fct>, Exterior.1st <fct>, Exterior.2nd <fct>,
## #   Mas.Vnr.Type <fct>, Mas.Vnr.Area <int>, Exter.Qual <fct>,
## #   Exter.Cond <fct>, Foundation <fct>, Bsmt.Qual <fct>, Bsmt.Cond <fct>,
…
ames_validation%>%mutate(res=resid.BIC.va )%>%arrange(res)

## # A tibble: 763 x 82
##        PID  area  price MS.SubClass MS.Zoning Lot.Frontage Lot.Area Street
##      <int> <int>  <int>       <int> <fct>            <int>    <int> <fct> 
##  1  5.32e8  2014 275000          20 RL                  NA    15676 Pave  
##  2  9.06e8  1800 239000          20 RL                 122    11923 Pave  
##  3  9.08e8  1709 130000         160 RM                  24     2522 Pave  
##  4  5.35e8  1392 110000          20 RL                 120    13560 Pave  
##  5  9.05e8  1689 127500          20 RL                  73     9855 Pave  
##  6  5.34e8  1594 188500          20 RL                  80     9547 Pave  
##  7  9.16e8  1707 228000          20 RL                  NA    16669 Pave  
##  8  5.31e8  1512 203000          20 RL                  76    10141 Pave  
##  9  5.27e8  2093 215000          60 RL                  46    20544 Pave  
## 10  5.27e8  1474 115000          20 RL                  NA    31220 Pave  
## # ... with 753 more rows, and 74 more variables: Alley <fct>,
## #   Lot.Shape <fct>, Land.Contour <fct>, Utilities <fct>,
## #   Lot.Config <fct>, Land.Slope <fct>, Neighborhood <fct>,
## #   Condition.1 <fct>, Condition.2 <fct>, Bldg.Type <fct>,
## #   House.Style <fct>, Overall.Qual <int>, Overall.Cond <int>,
## #   Year.Built <int>, Year.Remod.Add <int>, Roof.Style <fct>,
## #   Roof.Matl <fct>, Exterior.1st <fct>, Exterior.2nd <fct>,
## #   Mas.Vnr.Type <fct>, Mas.Vnr.Area <int>, Exter.Qual <fct>,
## #   Exter.Cond <fct>, Foundation <fct>, Bsmt.Qual <fct>, Bsmt.Cond <fct>,
…
